{
	"content": [
		{
			"id": "1045236602156316",
			"source": "https://fbcdn-video-d-a.akamaihd.net/hvideo-ak-xft1/v/t43.1792-2/11727376_1045236845489625_2006933344_n.mp4?efg=eyJybHIiOjE1MDAsInJsYSI6MTAyNH0%3D&rl=1500&vabr=274&oh=69788585bc711f080e54a34d960e7ad5&oe=55BBDBE5&__gda__=1438428915_8c420f9901d86a0e0817f4a80757904e",
			"picture": "https://fbcdn-vthumb-a.akamaihd.net/hvthumb-ak-xtp1/v/t15.0-10/11331873_1045236905489619_1152239380_n.jpg?oh=7904bca05d8a52ebb20f8fcc5eb31c0a&oe=561224CC&__gda__=1448885316_4df154d319f60e64cbbbd58debd21bf2",
			"description": "샷건전주곡\n롤 리믹스",
			"name": "eSports Battle",
			"category": "GAME",
			"profile_image": "https://fbcdn-profile-a.akamaihd.net/hprofile-ak-xtp1/v/t1.0-1/p200x200/11146556_994681237211853_4824843520554833695_n.png?oh=69f9a1167ca7462aa7b12305c5b16584&oe=56422F8E&__gda__=1447550274_0134be63a82f31f93187a3361b36f64f",
			"updated_time": "2015-07-30",
			"created_time": "2015-07-30",
			"width": 640,
			"height": 356,
			"status": "ENABLE"
		}, {
			"id": "928907457180916",
			"source": "https://fbcdn-video-e-a.akamaihd.net/hvideo-ak-xta1/v/t42.1790-2/11826650_928907697180892_235133922_n.mp4?efg=eyJybHIiOjQyOCwicmxhIjo5ODl9&rl=428&vabr=238&oh=57a8d4f137a24f1df0d2062a774da082&oe=55BC9C8A&__gda__=1438421637_f1f8c361d53044654bc97bcdfcdda452",
			"picture": "https://fbcdn-vthumb-a.akamaihd.net/hvthumb-ak-xtp1/v/t15.0-10/11188558_928907767180885_1882761882_n.jpg?oh=2ae4945cbd02a7167381ba784625e8a6&oe=56110643&__gda__=1447254444_c2c25829c94757cfb5484f0ad1b76e19",
			"description": "듣기만 해도 그냥 힘 솟아나는 노래.avi\n\n딕펑스는 진리입니다 ㅠㅠㅠ\n아주 그냥 음색에 꿀을 발랐나봐요 ㄷㄷㄷ\n\n딕펑스 - Viva 청춘",
			"name": "세상에서 가장 소름돋는 라이브",
			"category": "MUSIC",
			"profile_image": "https://fbcdn-profile-a.akamaihd.net/hprofile-ak-xat1/v/t1.0-1/10896933_782475291824134_3113924123270034350_n.png?oh=e8f83eba1af0b7683f2e226b106d4d7a&oe=563E25FF&__gda__=1448427228_7781d6ecc2b4e4bf3fb7b80d12eef40d",
			"updated_time": "2015-07-30",
			"created_time": "2015-07-30",
			"width": 400,
			"height": 226,
			"status": "ENABLE"
		}, {
			"id": "1045078568838786",
			"source": "https://video.xx.fbcdn.net/hvideo-xap1/v/t42.1790-2/11827696_1045078665505443_960060339_n.mp4?efg=eyJybHIiOjMwMCwicmxhIjo1MTJ9&rl=300&vabr=124&oh=021afdc10fd8120b0165e8375d4517dd&oe=55BCA571",
			"picture": "https://fbcdn-vthumb-a.akamaihd.net/hvthumb-ak-xpa1/v/t15.0-10/11331275_1626058080984539_1653784732_n.jpg?oh=494eac5b7c6b8a51640f8e18f9669f6e&oe=565B2ED1&__gda__=1446853935_c755377dd62f9ed64fabf301acb83212",
			"description": "브론즈식 딜교환",
			"name": "eSports Battle",
			"category": "GAME",
			"profile_image": "https://fbcdn-profile-a.akamaihd.net/hprofile-ak-xtp1/v/t1.0-1/p200x200/11146556_994681237211853_4824843520554833695_n.png?oh=69f9a1167ca7462aa7b12305c5b16584&oe=56422F8E&__gda__=1447550274_0134be63a82f31f93187a3361b36f64f",
			"updated_time": "2015-07-29",
			"created_time": "2015-07-29",
			"width": 400,
			"height": 224,
			"status": "ENABLE"
		}, {
			"id": "924930464220327",
			"source": "https://video.xx.fbcdn.net/hvideo-xtf1/v/t43.1792-2/11746224_924930967553610_1244261618_n.mp4?efg=eyJybHIiOjE3NjIsInJsYSI6MjIwMX0%3D&rl=1762&vabr=1175&oh=d9fe41966c9409f3c99c0db68a70ba1e&oe=55BBBE6A",
			"picture": "https://fbcdn-vthumb-a.akamaihd.net/hvthumb-ak-xtf1/v/t15.0-10/11403698_1448461198794307_1835609302_n.jpg?oh=8ae943d629d039f86765e0561cdb7cd4&oe=56470A20&__gda__=1447502443_d8886fd69cd85093b709efad16aef207",
			"description": "- '시즌 7호포' 강정호, 팀도 대승\n- '좌완 풍년' 두산, 위닝시리즈 노린다\n- 로우지 vs 코레이아 승자는 누가 될까\nhttp://www.spotvnews.co.kr/?mod=news&act=articleView&idxno=23770",
			"name": "Spotv",
			"category": "SPORTS",
			"profile_image": "https://fbcdn-profile-a.akamaihd.net/hprofile-ak-xfp1/v/t1.0-1/p200x200/10402790_867335816646459_8630764998893186157_n.jpg?oh=94905a520f75599aa8bfa5cd99c4a8f5&oe=563D5429&__gda__=1447417154_b0658dc13be88d74b864d1025b6ba583",
			"updated_time": "2015-07-29",
			"created_time": "2015-07-29",
			"width": 1280,
			"height": 720,
			"status": "ENABLE"
		}, {
			"id": "924817074231666",
			"source": "https://video.xx.fbcdn.net/hvideo-xtf1/v/t43.1792-2/11826954_924824474230926_1160353165_n.mp4?efg=eyJybHIiOjIwODgsInJsYSI6MTcyMn0%3D&rl=2088&vabr=1392&oh=d43a998b8797a746f36d153184497ea9&oe=55BB76B4",
			"picture": "https://fbcdn-vthumb-a.akamaihd.net/hvthumb-ak-xpt1/v/t15.0-10/11188862_924824670897573_1106933126_n.jpg?oh=94d4438363b3457d2ac8cb50626afc73&oe=5612715B&__gda__=1446888104_4c74ee92a9deacf088c44e197de7529a",
			"description": "느낌이 좋아 ♬\n작년 이맘때보다 훨씬 더~\n\nMy Sports Channel, #SPOTV",
			"name": "Spotv",
			"category": "SPORTS",
			"profile_image": "https://fbcdn-profile-a.akamaihd.net/hprofile-ak-xfp1/v/t1.0-1/p200x200/10402790_867335816646459_8630764998893186157_n.jpg?oh=94905a520f75599aa8bfa5cd99c4a8f5&oe=563D5429&__gda__=1447417154_b0658dc13be88d74b864d1025b6ba583",
			"updated_time": "2015-07-29",
			"created_time": "2015-07-29",
			"width": 1280,
			"height": 720,
			"status": "ENABLE"
		}, {
			"id": "958775177521817",
			"source": "https://fbcdn-video-e-a.akamaihd.net/hvideo-ak-xft1/v/t43.1792-2/11780876_958775257521809_1576944603_n.mp4?efg=eyJybHIiOjE1MDAsInJsYSI6MTAyNH0%3D&rl=1500&vabr=421&oh=760b4feadeb774f90488c640638b5913&oe=55BBAAF4&__gda__=1438357543_bd8064d9776569c00e8dfadfcba45297",
			"picture": "https://fbcdn-vthumb-a.akamaihd.net/hvthumb-ak-xpt1/v/t15.0-10/11188749_958775374188464_507059275_n.jpg?oh=36f95176d511770368836f640178fa86&oe=5652AD82&__gda__=1443895887_88b028d33411a922e8f9979c2cc1d1be",
			"description": "비 올때 개 빡침 甲.avi",
			"name": "오즐 - 5분의 즐거움",
			"category": "\u0010TREND",
			"profile_image": "https://fbcdn-profile-a.akamaihd.net/hprofile-ak-xfa1/v/t1.0-1/64161_481771205222219_1704489638_n.jpg?oh=d6b284b3448ba62f3cac4209262148c6&oe=564664B4&__gda__=1447904069_747f985c656574d5c6580c89f349af7a",
			"updated_time": "2015-07-29",
			"created_time": "2015-07-29",
			"width": 640,
			"height": 640,
			"status": "ENABLE"
		}, {
			"id": "925517140856875",
			"source": "https://fbcdn-video-b-a.akamaihd.net/hvideo-ak-xft1/v/t43.1792-2/11791449_925519664189956_43828584_n.mp4?efg=eyJybHIiOjE1MDAsInJsYSI6MjIxOH0%3D&rl=1500&vabr=718&oh=bb8af62d8fbe8f57b73c3864a9e82d6f&oe=55BCA82D&__gda__=1438427751_f4300c4b53cebab5bbb63a072af37154",
			"picture": "https://fbcdn-vthumb-a.akamaihd.net/hvthumb-ak-xfa1/v/t15.0-10/11407437_925519734189949_931270341_n.jpg?oh=4d8c53ba9f5bc6c42342b9f0be98a9f5&oe=5650F803&__gda__=1448851043_a7de47522670e516602cfa0b1d33d1e4",
			"description": "약빨고 만든게 분명함ㅋㅋㅋㅋㅋ\n뭐지…ㅋㅋㅋㅋㅋ 이 쓸데없이 미친것 같은 케미는…",
			"name": "너무웃겨서 눈물날 지경입니다",
			"category": "TREND",
			"profile_image": "https://fbcdn-profile-a.akamaihd.net/hprofile-ak-xpa1/v/t1.0-1/c0.0.200.200/p200x200/1472847_585849261490333_1371805682_n.jpg?oh=8d9ebc2aedaa2084c6a2dc832cfb2d4c&oe=5610C018&__gda__=1448039885_53f495edfa3067c96dfac1451d0a894a",
			"updated_time": "2015-07-29",
			"created_time": "2015-07-29",
			"width": 1280,
			"height": 720,
			"status": "ENABLE"
		}, {
			"id": "465230043680297",
			"source": "https://video.xx.fbcdn.net/hvideo-xfa1/v/t43.1792-2/11775164_465230383680263_992000292_n.mp4?efg=eyJybHIiOjE2NDEsInJsYSI6MzcwMn0%3D&rl=1641&vabr=1094&oh=164922a13129ec9a89ff7e2b31b88f4e&oe=55BC9091",
			"picture": "https://fbcdn-vthumb-a.akamaihd.net/hvthumb-ak-xat1/v/t15.0-10/11413646_465230757013559_804336887_n.jpg?oh=49a9df8629eeb8e11152a3ce3ec756e7&oe=56508233&__gda__=1443797549_5e945a2f64148f352b9f6ec821e88e95",
			"description": "발암주의! 심해의 실제상황! #3\n*다시 한번 말씀드리지만, 브론즈 티어 소환사 분들을 싫어하는 건 아니예요. 정말로요!",
			"name": "레오나",
			"category": "GAME",
			"profile_image": "https://fbcdn-profile-a.akamaihd.net/hprofile-ak-xfa1/v/t1.0-1/p200x200/11390040_415792988624003_2460977341749857629_n.png?oh=ecf25b7b03da796a435b6c7c8f67c581&oe=5645568E&__gda__=1448781063_e689c8b12437f23f08955bc896bfdde6",
			"updated_time": "2015-07-29",
			"created_time": "2015-07-29",
			"width": 1280,
			"height": 720,
			"status": "ENABLE"
		}, {
			"id": "958699114196090",
			"source": "https://fbcdn-video-a-a.akamaihd.net/hvideo-ak-xft1/v/t42.1790-2/11680532_958699207529414_683816582_n.mp4?efg=eyJybHIiOjQwNSwicmxhIjo1MTJ9&rl=405&vabr=225&oh=d644c8aa41ab0fedcce5bfd4dd86e6c4&oe=55BCB304&__gda__=1438372088_dc983d503df1ded927e120484bcee965",
			"picture": "https://fbcdn-vthumb-a.akamaihd.net/hvthumb-ak-xaf1/v/t15.0-10/11407556_958699270862741_1190800663_n.jpg?oh=efa0be9ceb69344f05cc8d2e8e436cd4&oe=563EAFD8&__gda__=1447385390_5c3dd53854365229c327be4ddc104baf",
			"description": "초심 잃은 하정우.avi",
			"name": "오즐 - 5분의 즐거움",
			"category": "\u0010TREND",
			"profile_image": "https://fbcdn-profile-a.akamaihd.net/hprofile-ak-xfa1/v/t1.0-1/64161_481771205222219_1704489638_n.jpg?oh=d6b284b3448ba62f3cac4209262148c6&oe=564664B4&__gda__=1447904069_747f985c656574d5c6580c89f349af7a",
			"updated_time": "2015-07-29",
			"created_time": "2015-07-29",
			"width": 226,
			"height": 400,
			"status": "ENABLE"
		}, {
			"id": "498186400357503",
			"source": "https://video.xx.fbcdn.net/hvideo-xft1/v/t43.1792-2/11390658_498187383690738_1223359955_n.mp4?efg=eyJybHIiOjE1MDAsInJsYSI6NDA5Nn0%3D&rl=1500&vabr=918&oh=8fe0ed8ae59c6de182ab4bbc87c13b79&oe=55BB8237",
			"picture": "https://fbcdn-vthumb-a.akamaihd.net/hvthumb-ak-xap1/v/t15.0-10/11403555_498187460357397_1074543902_n.jpg?oh=d121919dbbcefb4fb8ba5e41dd9b93d7&oe=56544F99&__gda__=1448054220_7251018926b8ef05a5e8243ed51d3c3c",
			"description": "[LOL] 이 쯤되면 진지하게 파볼까 고민이 된다",
			"name": "게임대전",
			"category": "GAME",
			"profile_image": "https://fbcdn-profile-a.akamaihd.net/hprofile-ak-xaf1/v/t1.0-1/c90.0.200.200/p200x200/10603304_354067488102729_5777297451618046462_n.jpg?oh=ebc2a7831a9f4b914b096461f2547ebe&oe=560DDC65&__gda__=1448796771_45c2817a872f0b1b38b71155cb732391",
			"updated_time": "2015-07-29",
			"created_time": "2015-07-29",
			"width": 1280,
			"height": 720,
			"status": "ENABLE"
		}, {
			"id": "874331519315911",
			"source": "https://fbcdn-video-n-a.akamaihd.net/hvideo-ak-xfp1/v/t43.1792-2/11809367_874331972649199_825868392_n.mp4?efg=eyJybHIiOjE1MDAsInJsYSI6MTAyNH0%3D&rl=1500&vabr=476&oh=54b444d66218db2ed7ee8b4084d9e441&oe=55BBBEE2&__gda__=1438373890_315bcf90e865b0d6bdbeaa1c6855eed6",
			"picture": "https://scontent.xx.fbcdn.net/hvthumb-xpt1/v/l/t15.0-10/10549297_874332379315825_1224122871_n.jpg?oh=91e9adc4edb09494289317c730b5255f&oe=564E5817",
			"description": "친구한테 꼭 해보고 싶은 마술 ㅋㅋㅋㅋ",
			"name": "베스트 비디오",
			"category": "TREND",
			"profile_image": "https://fbcdn-profile-a.akamaihd.net/hprofile-ak-xft1/v/t1.0-1/c12.12.155.155/954743_498729413542792_1709935294_n.png?oh=613ba8be4e84e402d7e0dac672388f14&oe=560E015B&__gda__=1447274685_ce33d8ce2c5e771f032c0b1266196fb9",
			"updated_time": "2015-07-29",
			"created_time": "2015-07-29",
			"width": 1280,
			"height": 720,
			"status": "ENABLE"
		}, {
			"id": "928469580558037",
			"source": "https://fbcdn-video-f-a.akamaihd.net/hvideo-ak-xtf1/v/t42.1790-2/11745069_928470380557957_636419390_n.mp4?efg=eyJybHIiOjMwMCwicmxhIjo2MjF9&rl=300&vabr=146&oh=116e728fbabfaa74c1f6fbb59388984c&oe=55BC9F9A&__gda__=1438423984_613256a1a1c3cd098c540c5752c4bd4f",
			"picture": "https://fbcdn-vthumb-a.akamaihd.net/hvthumb-ak-xfa1/v/t15.0-10/11188822_928470470557948_776996671_n.jpg?oh=a40e2fefacad7c424d5b2a79a57988f8&oe=561287A6&__gda__=1447766726_ff9430c6cf159fe23c3a40cea910fda1",
			"description": "아이유 - 여름밤의 꿈\n\n깊은 밤 아름다운 그 시간은\n이렇게 찾아와\n마음을 물들이고\n영원한 여름밤의 꿈을 기억하고 있어요\n다시 아침이 밝아와도\n잊혀지지 않도록",
			"name": "세상에서 가장 소름돋는 라이브",
			"category": "MUSIC",
			"profile_image": "https://fbcdn-profile-a.akamaihd.net/hprofile-ak-xat1/v/t1.0-1/10896933_782475291824134_3113924123270034350_n.png?oh=e8f83eba1af0b7683f2e226b106d4d7a&oe=563E25FF&__gda__=1448427228_7781d6ecc2b4e4bf3fb7b80d12eef40d",
			"updated_time": "2015-07-29",
			"created_time": "2015-07-29",
			"width": 400,
			"height": 226,
			"status": "ENABLE"
		}, {
			"id": "924742697572437",
			"source": "https://fbcdn-video-n-a.akamaihd.net/hvideo-ak-xft1/v/t43.1792-2/11733171_924743420905698_1453767240_n.mp4?efg=eyJybHIiOjE3NjcsInJsYSI6MzE5Mn0%3D&rl=1767&vabr=1178&oh=d4a89dc9e930a438bac0328adeaf5cd0&oe=55BCAEF0&__gda__=1438422627_a24886eeb21888e61cf89ee47a9e6265",
			"picture": "https://fbcdn-vthumb-a.akamaihd.net/hvthumb-ak-xft1/v/t15.0-10/11189076_1448302865476807_759839445_n.jpg?oh=1d75ad45d05246328c6d6a7f20f7056d&oe=5649DC23&__gda__=1448475923_2e1f1f512213cf99634b74dcd053048c",
			"description": "보스턴의 전설의 레전드가 된 영원한 45번 마르티네즈\nhttp://www.spotvnews.co.kr/?mod=news&act=articleView&idxno=23711&sc_code=1394547726&page=&total=",
			"name": "Spotv",
			"category": "SPORTS",
			"profile_image": "https://fbcdn-profile-a.akamaihd.net/hprofile-ak-xfp1/v/t1.0-1/p200x200/10402790_867335816646459_8630764998893186157_n.jpg?oh=94905a520f75599aa8bfa5cd99c4a8f5&oe=563D5429&__gda__=1447417154_b0658dc13be88d74b864d1025b6ba583",
			"updated_time": "2015-07-29",
			"created_time": "2015-07-29",
			"width": 1280,
			"height": 720,
			"status": "ENABLE"
		}, {
			"id": "958772607522074",
			"source": "https://video.xx.fbcdn.net/hvideo-xtf1/v/t43.1792-2/11743190_958772767522058_1703128296_n.mp4?efg=eyJybHIiOjE1MDAsInJsYSI6MTAyNH0%3D&rl=1500&vabr=252&oh=7099512364b342e7313176990805a6f6&oe=55BBCB17",
			"picture": "https://fbcdn-vthumb-a.akamaihd.net/hvthumb-ak-xta1/v/t15.0-10/11403259_10206729994589665_866199744_n.jpg?oh=d4bf1438d8d47ada602ac8a3f603b872&oe=5611830C&__gda__=1447546722_f28c8b0a72d1ac0dba1d1b2d6f9114cf",
			"description": "수박먹을때 꿀팁.avi",
			"name": "오즐 - 5분의 즐거움",
			"category": "\u0010TREND",
			"profile_image": "https://fbcdn-profile-a.akamaihd.net/hprofile-ak-xfa1/v/t1.0-1/64161_481771205222219_1704489638_n.jpg?oh=d6b284b3448ba62f3cac4209262148c6&oe=564664B4&__gda__=1447904069_747f985c656574d5c6580c89f349af7a",
			"updated_time": "2015-07-29",
			"created_time": "2015-07-29",
			"width": 640,
			"height": 640,
			"status": "ENABLE"
		}, {
			"id": "670079919789107",
			"source": "https://video.xx.fbcdn.net/hvideo-xpa1/v/t42.1790-2/11770934_670080379789061_952555203_n.mp4?efg=eyJybHIiOjM2OSwicmxhIjo1MTJ9&rl=369&vabr=205&oh=197383a9177a28dd62ea67b0084cbd85&oe=55BAE6A3",
			"picture": "https://fbcdn-vthumb-a.akamaihd.net/hvthumb-ak-xat1/v/t15.0-10/11331371_670080486455717_1667249715_n.jpg?oh=1a5e5f3898d22b952de784fd1d0785d9&oe=564B9872&__gda__=1447090535_ab44dff8bb61e11f34beae80709bfc3b",
			"description": "비숑의 구석사랑 \n\n#펫모아 #강아지분양 \nwww.pet-moa.co.kr\n카톡: avakorea",
			"name": "펫모아",
			"category": "PET",
			"profile_image": "https://fbcdn-profile-a.akamaihd.net/hprofile-ak-xtf1/v/t1.0-1/p200x200/11406990_647901798673586_7031466973275719726_n.jpg?oh=f6e9d2d69d2e883f66d7584e7ce1d28c&oe=560DD2E4&__gda__=1448268177_d7a9377819d191c1bb61835087960d5e",
			"updated_time": "2015-07-29",
			"created_time": "2015-07-29",
			"width": 320,
			"height": 320,
			"status": "ENABLE"
		}, {
			"id": "1044864225526887",
			"source": "https://fbcdn-video-e-a.akamaihd.net/hvideo-ak-xaf1/v/t43.1792-2/11425205_1044864598860183_1265034174_n.mp4?efg=eyJybHIiOjE1MDAsInJsYSI6MTAyNH0%3D&rl=1500&vabr=435&oh=bf51569d8a35d98ec269484dd0cf5791&oe=55BC9356&__gda__=1438348550_9e87eb04e402cbda0616b9e1a6457b79",
			"picture": "https://fbcdn-vthumb-a.akamaihd.net/hvthumb-ak-xft1/v/t15.0-10/158730_1044864648860178_980435635_n.jpg?oh=4e4f551f1e06403a6ad9de1496f994d4&oe=5640B058&__gda__=1444075738_fbf4f3fba3f99e086d69613c6655cb7b",
			"description": "황정민슬러그\n방심하다 핵빵터짐",
			"name": "eSports Battle",
			"category": "GAME",
			"profile_image": "https://fbcdn-profile-a.akamaihd.net/hprofile-ak-xtp1/v/t1.0-1/p200x200/11146556_994681237211853_4824843520554833695_n.png?oh=69f9a1167ca7462aa7b12305c5b16584&oe=56422F8E&__gda__=1447550274_0134be63a82f31f93187a3361b36f64f",
			"updated_time": "2015-07-29",
			"created_time": "2015-07-29",
			"width": 854,
			"height": 480,
			"status": "ENABLE"
		}, {
			"id": "498181503691326",
			"source": "https://fbcdn-video-c-a.akamaihd.net/hvideo-ak-xft1/v/t42.1790-2/11744024_498184270357716_801668042_n.mp4?efg=eyJybHIiOjQ2OCwicmxhIjozNDQ4fQ%3D%3D&rl=468&vabr=260&oh=6ec4718d795129de8c6eae552915b3c5&oe=55BBC9B3&__gda__=1438359759_75ab8fff8ea6f71782f9d3fb66049ef3",
			"picture": "https://fbcdn-vthumb-a.akamaihd.net/hvthumb-ak-xft1/v/t15.0-10/11413833_498184337024376_1381382036_n.jpg?oh=89f326067465321dfe93ec471f0b442d&oe=563FA330&__gda__=1447739648_3f5420eb39b6fe23f5825aac60cc592c",
			"description": "[LOL] 페이커 연대기 : 전설의 시작 1-2편\n\n출처 - MGTV \n주소 - https://www.youtube.com/watch?v=z12tVSaYhME&feature=youtu.be",
			"name": "게임대전",
			"category": "GAME",
			"profile_image": "https://fbcdn-profile-a.akamaihd.net/hprofile-ak-xaf1/v/t1.0-1/c90.0.200.200/p200x200/10603304_354067488102729_5777297451618046462_n.jpg?oh=ebc2a7831a9f4b914b096461f2547ebe&oe=560DDC65&__gda__=1448796771_45c2817a872f0b1b38b71155cb732391",
			"updated_time": "2015-07-29",
			"created_time": "2015-07-29",
			"width": 400,
			"height": 226,
			"status": "ENABLE"
		}, {
			"id": "934983006557902",
			"source": "https://fbcdn-video-p-a.akamaihd.net/hvideo-ak-xpf1/v/t43.1792-2/11541454_934983489891187_956833667_n.mp4?efg=eyJybHIiOjE1MDAsInJsYSI6MTI0N30%3D&rl=1500&vabr=738&oh=17b351c4dff21b25da7df44179304411&oe=55BB9EAC&__gda__=1438352342_92330dba460af966325e414a3e68f6e8",
			"picture": "https://fbcdn-vthumb-a.akamaihd.net/hvthumb-ak-xfp1/v/t15.0-10/11188796_1634666233486984_1418693371_n.jpg?oh=1806b3817d99deeb5a7baf68c1f885cc&oe=5642FA44&__gda__=1447358981_9fdc0aade3d870891ca54fb99b974302",
			"description": "[PROMO HD]\n오래기다리셨습니다.swf (feat. 고퀄주의)\n\n<프리미어리그 15/16 - 공식 예고편 (개막D-10)>\n#BPLkickoff #기다림 #기대 #공유용\n_____________________\n커뮤니티 쉴드: 일요일 23:00 - 아스날 vs 첼시 - Wembley\n개막전: 8/8 20:45 - 맨유 vs 토트넘 - Old Trafford",
			"name": "바클레이즈 프리미어리그",
			"category": "SPORTS",
			"profile_image": "https://fbcdn-profile-a.akamaihd.net/hprofile-ak-ash2/v/t1.0-1/c7.0.200.200/p200x200/1004652_562531147136425_1978238843_n.jpg?oh=e975e549c0ad0d0d72e58d8f91533ee4&oe=5652303C&__gda__=1448913982_7e55a7eac567dd12cc06d0b5cff90f71",
			"updated_time": "2015-07-29",
			"created_time": "2015-07-29",
			"width": 1024,
			"height": 576,
			"status": "ENABLE"
		}, {
			"id": "924722537574453",
			"source": "https://fbcdn-video-o-a.akamaihd.net/hvideo-ak-xtf1/v/t43.1792-2/11826711_924724654240908_1974904161_n.mp4?efg=eyJybHIiOjI4MDgsInJsYSI6NDA5Nn0%3D&rl=2808&vabr=1872&oh=8ab7ffc138afe9342881b58989a3c188&oe=55BB7AD1&__gda__=1438372571_149321b5fd31370f567922ba505e6905",
			"picture": "https://fbcdn-vthumb-a.akamaihd.net/hvthumb-ak-xfp1/v/t15.0-10/11188543_924724744240899_757748870_n.jpg?oh=ed14624d1e1ffef96a29f5303b1335ba&oe=565346F1&__gda__=1447746631_5b333d47e426724a2330ab40235192de",
			"description": "7월 4주차 NB어워즈 후보영상!\n\n7/21(화) 한화 정근우\n7/22(수) LG 문선재\n7/23(목) KIA 양현종\n7/24(금) 두산 김현수\n7/25(토) NC 나성범\n7/26(일) 삼성 이승엽\n\n위 6명의 선수가 후보에 올랐습니다 :)\n\nMy Sports Channel, #SPOTV",
			"name": "Spotv",
			"category": "SPORTS",
			"profile_image": "https://fbcdn-profile-a.akamaihd.net/hprofile-ak-xfp1/v/t1.0-1/p200x200/10402790_867335816646459_8630764998893186157_n.jpg?oh=94905a520f75599aa8bfa5cd99c4a8f5&oe=563D5429&__gda__=1447417154_b0658dc13be88d74b864d1025b6ba583",
			"updated_time": "2015-07-29",
			"created_time": "2015-07-29",
			"width": 1280,
			"height": 720,
			"status": "ENABLE"
		}, {
			"id": "928468913891437",
			"source": "https://video.xx.fbcdn.net/hvideo-xtf1/v/t42.1790-2/11746912_928469300558065_2059765989_n.mp4?efg=eyJybHIiOjMwMCwicmxhIjo1NzF9&rl=300&vabr=139&oh=16935317a638ca0ed8f64a09b0f3364e&oe=55BCA5CA",
			"picture": "https://fbcdn-vthumb-a.akamaihd.net/hvthumb-ak-xta1/v/t15.0-10/11403631_928469380558057_1968060774_n.jpg?oh=7f7813f42ed8acdc1eb27a9f59145e0a&oe=5610CCB2&__gda__=1447315086_9a0258717ffc0bae644a9f7536fd7b6b",
			"description": "진짜가 나타났다 나얼이 나타났다.avi\n\n음~ 하는 순간부터 와 소름이 ㄷㄷㄷㄷ\n귀가 은혜로워지는 느낌 ㅠㅠㅠ\n\n나얼 - 귀로",
			"name": "세상에서 가장 소름돋는 라이브",
			"category": "MUSIC",
			"profile_image": "https://fbcdn-profile-a.akamaihd.net/hprofile-ak-xat1/v/t1.0-1/10896933_782475291824134_3113924123270034350_n.png?oh=e8f83eba1af0b7683f2e226b106d4d7a&oe=563E25FF&__gda__=1448427228_7781d6ecc2b4e4bf3fb7b80d12eef40d",
			"updated_time": "2015-07-29",
			"created_time": "2015-07-29",
			"width": 400,
			"height": 226,
			"status": "ENABLE"
		}
	],
	"totalElements": 836,
	"totalPages": 42,
	"last": false,
	"first": true,
	"numberOfElements": 20,
	"sort": null,
	"size": 20,
	"number": 0
}